{
    "development": {
        "app_port": 3000,
        "mysql_db_host": "localhost",
        "mysql_db_user": "root",
        "mysql_db_pass": "",
        "mysql_db_name": "zebpay"
    },
    "staging": {
        "app_port": 3000,
        "mysql_db_host": "localhost",
        "mysql_db_user": "root",
        "mysql_db_pass": "",
        "mysql_db_name": "zebpay"
    },
    "production": {
        "app_port": 3000,
        "mysql_db_host": "localhost",
        "mysql_db_user": "root",
        "mysql_db_pass": "",
        "mysql_db_name": "zebpay"
    }
}